{ "height":19,
 "layers":[
        {
         "data":[137, 138, 137, 138, 137, 138, 137, 138, 137, 138, 137, 138, 137, 138, 137, 138, 137, 138, 137, 138, 137, 138, 137, 138, 137, 145, 146, 145, 146, 145, 146, 145, 146, 145, 146, 145, 146, 145, 146, 145, 146, 145, 146, 145, 146, 145, 146, 145, 146, 145, 137, 138, 137, 138, 137, 138, 137, 138, 137, 138, 137, 138, 137, 138, 137, 138, 137, 138, 137, 138, 137, 138, 137, 138, 137, 145, 146, 145, 146, 145, 146, 145, 146, 145, 146, 145, 146, 145, 146, 145, 146, 145, 146, 145, 146, 145, 146, 145, 146, 145, 137, 138, 137, 138, 137, 138, 137, 138, 137, 138, 137, 138, 137, 138, 137, 138, 137, 138, 137, 138, 137, 138, 137, 138, 137, 145, 146, 145, 146, 145, 146, 145, 146, 145, 146, 145, 146, 145, 146, 145, 146, 145, 146, 145, 146, 145, 146, 145, 146, 145, 137, 138, 137, 138, 137, 138, 137, 138, 137, 138, 137, 138, 137, 138, 137, 138, 137, 138, 137, 138, 137, 138, 137, 138, 137, 145, 146, 145, 146, 145, 146, 145, 146, 145, 146, 145, 146, 145, 146, 145, 146, 145, 146, 145, 146, 145, 146, 145, 146, 145, 137, 138, 137, 138, 137, 138, 137, 138, 137, 138, 137, 138, 137, 138, 137, 138, 137, 138, 137, 138, 137, 138, 137, 138, 137, 145, 146, 145, 146, 145, 146, 145, 146, 145, 146, 145, 146, 145, 146, 145, 146, 145, 146, 145, 146, 145, 146, 145, 146, 145, 137, 138, 137, 138, 137, 138, 137, 138, 137, 138, 137, 138, 137, 138, 137, 138, 137, 138, 137, 138, 137, 138, 137, 138, 137, 145, 146, 145, 146, 145, 146, 145, 146, 145, 146, 145, 146, 145, 146, 145, 146, 145, 146, 145, 146, 145, 146, 145, 146, 145, 137, 138, 137, 138, 137, 138, 137, 138, 137, 138, 137, 138, 137, 138, 137, 138, 137, 138, 137, 138, 137, 138, 137, 138, 137, 145, 146, 145, 146, 145, 146, 145, 146, 145, 146, 145, 146, 145, 146, 145, 146, 145, 146, 145, 146, 145, 146, 145, 146, 145, 137, 138, 137, 138, 137, 138, 137, 138, 137, 138, 137, 138, 137, 138, 137, 138, 137, 138, 137, 138, 137, 138, 137, 138, 137, 145, 146, 145, 146, 145, 146, 145, 146, 145, 146, 145, 146, 145, 146, 145, 146, 145, 146, 145, 146, 145, 146, 145, 146, 145, 137, 138, 137, 138, 137, 138, 137, 138, 137, 138, 137, 138, 137, 138, 137, 138, 137, 138, 137, 138, 137, 138, 137, 138, 137, 145, 146, 145, 146, 145, 146, 145, 146, 145, 146, 145, 146, 145, 146, 145, 146, 145, 146, 145, 146, 145, 146, 145, 146, 145, 137, 138, 137, 138, 137, 138, 137, 138, 137, 138, 137, 138, 137, 138, 137, 138, 137, 138, 137, 138, 137, 138, 137, 138, 137],
         "height":19,
         "name":"terrain",
         "opacity":1,
         "type":"tilelayer",
         "visible":true,
         "width":25,
         "x":0,
         "y":0
        }, 
        {
         "data":[0, 0, 0, 0, 0, 0, 0, 0, 0, 28, 28, 28, 28, 0, 0, 0, 0, 0, 0, 0, 0, 0, 0, 0, 0, 0, 0, 0, 0, 0, 0, 0, 0, 0, 0, 0, 28, 28, 28, 0, 0, 0, 0, 0, 0, 0, 0, 0, 0, 0, 0, 0, 0, 0, 0, 0, 0, 0, 0, 0, 0, 0, 28, 28, 28, 0, 0, 0, 0, 61, 62, 61, 62, 0, 0, 0, 0, 0, 0, 0, 0, 0, 0, 0, 0, 0, 0, 0, 28, 28, 28, 0, 0, 0, 0, 61, 62, 62, 0, 0, 0, 0, 0, 0, 0, 0, 0, 0, 0, 0, 0, 0, 0, 0, 28, 28, 28, 0, 0, 0, 0, 0, 0, 0, 0, 0, 0, 0, 0, 0, 0, 0, 0, 0, 0, 0, 0, 0, 0, 0, 28, 28, 28, 0, 0, 0, 0, 0, 0, 0, 0, 0, 0, 0, 0, 0, 0, 0, 0, 0, 0, 0, 0, 0, 0, 28, 28, 28, 0, 0, 0, 0, 0, 0, 0, 0, 0, 0, 0, 0, 0, 0, 0, 0, 0, 0, 0, 0, 0, 0, 0, 28, 28, 0, 0, 0, 0, 0, 0, 0, 0, 0, 0, 59, 60, 0, 0, 0, 0, 0, 0, 0, 0, 0, 0, 0, 0, 28, 0, 0, 0, 0, 0, 0, 0, 0, 0, 59, 60, 0, 0, 0, 0, 0, 0, 0, 0, 0, 0, 0, 0, 0, 28, 0, 0, 0, 0, 0, 0, 0, 0, 0, 0, 0, 0, 0, 0, 0, 0, 0, 0, 0, 0, 0, 0, 0, 0, 28, 28, 0, 0, 0, 0, 0, 0, 0, 0, 0, 0, 0, 0, 0, 0, 0, 0, 0, 0, 0, 0, 0, 0, 28, 28, 0, 0, 0, 0, 0, 0, 0, 0, 0, 0, 0, 0, 0, 0, 0, 0, 0, 0, 0, 0, 0, 0, 0, 28, 28, 0, 0, 0, 0, 0, 0, 0, 0, 0, 0, 0, 0, 0, 0, 0, 0, 0, 0, 0, 0, 0, 0, 28, 28, 28, 0, 0, 0, 0, 0, 0, 0, 0, 0, 0, 0, 0, 0, 0, 0, 0, 0, 0, 59, 59, 60, 0, 28, 28, 28, 0, 0, 0, 0, 0, 0, 0, 0, 0, 0, 0, 0, 0, 0, 0, 0, 0, 59, 60, 0, 0, 0, 0, 28, 28, 0, 0, 0, 0, 0, 0, 0, 0, 0, 0, 0, 0, 0, 0, 0, 0, 0, 0, 0, 0, 0, 59, 60, 28, 28, 28, 0, 0, 0, 0, 0, 0, 0, 0, 0, 0, 0, 0, 0, 0, 0, 0, 0, 0, 0, 0, 0, 28, 28, 28, 28, 28, 28, 0, 0, 0, 0, 0, 0, 0, 0, 0, 0, 0, 0, 0, 0, 0, 0, 0, 0, 0, 0, 28, 28, 28, 28, 28, 0, 0, 0, 0],
         "height":19,
         "name":"decoration",
         "opacity":1,
         "type":"tilelayer",
         "visible":true,
         "width":25,
         "x":0,
         "y":0
        }, 
        {
         "data":[0, 0, 0, 0, 0, 0, 0, 0, 0, 0, 0, 0, 0, 0, 0, 0, 0, 0, 0, 0, 0, 0, 0, 0, 0, 0, 0, 0, 0, 5, 6, 7, 0, 0, 5, 6, 7, 0, 0, 0, 0, 0, 0, 0, 0, 0, 0, 0, 0, 0, 0, 0, 0, 0, 13, 14, 15, 0, 0, 13, 14, 15, 0, 0, 0, 0, 0, 0, 0, 0, 0, 0, 0, 0, 0, 0, 0, 0, 0, 21, 22, 23, 6, 7, 21, 22, 23, 0, 0, 0, 0, 0, 0, 0, 0, 0, 0, 0, 0, 0, 0, 0, 0, 0, 29, 30, 13, 14, 15, 29, 30, 31, 0, 0, 0, 0, 0, 0, 0, 0, 0, 0, 0, 0, 0, 0, 0, 0, 0, 0, 0, 21, 22, 23, 0, 0, 0, 0, 0, 0, 0, 0, 0, 0, 0, 0, 0, 0, 0, 0, 0, 0, 0, 0, 0, 0, 29, 30, 31, 0, 0, 0, 0, 0, 0, 0, 0, 0, 5, 6, 7, 0, 0, 0, 0, 0, 0, 0, 0, 0, 0, 0, 0, 0, 0, 0, 0, 0, 0, 5, 6, 7, 0, 13, 14, 15, 0, 0, 0, 0, 0, 0, 0, 0, 0, 0, 0, 0, 0, 0, 0, 0, 0, 0, 13, 14, 15, 0, 21, 22, 23, 0, 0, 0, 0, 0, 0, 0, 0, 0, 0, 0, 0, 0, 0, 0, 0, 0, 0, 21, 22, 23, 0, 29, 30, 31, 0, 0, 0, 0, 0, 0, 0, 0, 0, 0, 0, 0, 0, 0, 0, 0, 0, 0, 29, 30, 31, 0, 0, 0, 0, 0, 0, 0, 0, 0, 0, 0, 0, 0, 0, 0, 0, 36, 0, 0, 0, 0, 0, 0, 0, 0, 0, 5, 6, 7, 0, 0, 0, 0, 0, 0, 0, 0, 0, 0, 0, 0, 0, 0, 0, 0, 0, 0, 0, 0, 0, 0, 13, 14, 15, 0, 0, 0, 0, 0, 0, 0, 0, 0, 36, 0, 0, 0, 0, 0, 0, 0, 0, 0, 0, 0, 0, 21, 22, 23, 0, 0, 0, 0, 0, 0, 0, 0, 0, 0, 0, 0, 0, 0, 0, 0, 0, 0, 0, 0, 0, 0, 29, 30, 31, 0, 0, 0, 0, 0, 0, 0, 0, 0, 0, 36, 0, 0, 0, 0, 0, 0, 0, 0, 0, 0, 0, 0, 0, 0, 0, 0, 0, 0, 0, 0, 0, 0, 0, 0, 0, 0, 0, 0, 0, 0, 0, 0, 0, 0, 0, 0, 0, 0, 0, 0, 0, 0, 0, 0, 0, 0, 0, 0, 0, 0, 0, 0, 0, 0, 0, 0, 0, 0, 0, 0, 0, 0, 0, 0, 0, 0, 0, 0, 0, 0, 0, 0, 0, 0, 0, 0, 0, 0, 0, 0, 0, 0, 0, 0, 0, 0, 0, 0, 0, 0, 0, 0, 0],
         "height":19,
         "name":"collision",
         "opacity":1,
         "type":"tilelayer",
         "visible":false,
         "width":25,
         "x":0,
         "y":0
        }],
 "orientation":"orthogonal",
 "properties":
    {

    },
 "tileheight":32,
 "tilesets":[
        {
         "firstgid":1,
         "image":"resources\/img\/terrain\/light_forest.png",
         "imageheight":608,
         "imagewidth":256,
         "margin":0,
         "name":"light_forest",
         "properties":
            {

            },
         "spacing":0,
         "tileheight":32,
         "tilewidth":32,
         "transparentcolor":"#ffffff"
        }],
 "tilewidth":32,
 "version":1,
 "width":25
}